8273.255,6,3,36
6780.922,4,5,29
2054.661,0,3,8
14012.614,15,5,82
8441.642,7,3,42
7380.899,4,4,36
12085.65,9,5,55
2937.732,1,3,10
3294.901,1,2,13
4198.311,2,3,17
2087.498,0,3,7
1856.627,0,3,6
8458.27,6,3,38
9110.063,7,7,37
1517.825,0,3,4
15602.691,11,7,69
33891.253,35,8,176
2209.217,0,3,8
2398.049,0,3,9
8893.148,7,5,41
21486.543,25,3,115
1774.937,0,3,6
2869.663,1,3,11
4038.129,2,5,15
4684.078,2,4,17
18364.962,20,7,97
87336.286,102,12,485
12550.109,11,5,59
14723.637,15,6,70
5469.662,5,4,26
2928.567,1,2,12
5339.713,3,3,22
3419.387,2,2,14
5491.23,5,2,23
7316.266,6,4,33
12342.539,13,3,66
2368.571,0,3,9
18903.867,16,3,91
1907.917,0,3,6
16925.175,17,4,92
11690.52,9,5,57
17044.065,15,5,84
9922.013,8,3,49
1695.513,0,3,6
3949.414,2,3,14
3006.607,2,3,9
6769.856,5,2,28
4946.638,3,4,23
5888.15,3,2,23
10443.774,9,3,57
6450.461,4,5,28
5809.605,3,3,24
25133.744,32,4,145
2487.813,0,3,10
15864.644,12,6,77
7390.862,4,4,29
3880.316,2,4,14
16909.277,19,5,81
16734.485,19,5,94
16129.706,22,5,89
2738.318,1,3,9
6926.941,4,3,28
6400.563,6,3,34
7808.926,7,5,41
7810.294,7,3,36
12355.194,14,3,67
2695.521,1,3,9
9281.327,9,3,47
9801.416,7,7,43
5267.757,2,4,20
2027.206,0,3,7
11530.281,10,5,56
8150.327,6,5,36
7960.815,5,3,34
8091.034,7,4,40
11407.314,11,4,61
10237.85,13,3,56
2267.115,0,3,9
7880.667,5,2,36
10541.929,9,5,51
12404.032,10,7,58
6831.037,5,3,28
13615.489,16,5,64
2088.039,0,3,7
5469.1,5,3,20
